myshixun/test/lab1/dump.vcd
$version Generated by VerilatedVcd $end
$timescale 1s $end
 $scope module TOP $end
  $var wire 1 n resetn $end
  $var wire 1 o clk $end
  $var wire 16 p led [15:0] $end
  $var wire 8 q switch_1 [7:0] $end
  $scope module soc_mini_top $end
   $var wire 1 t SIMULATION [0:0] $end
   $var wire 1 n resetn $end
   $var wire 1 o clk $end
   $var wire 16 p led [15:0] $end
   $var wire 8 q switch_1 [7:0] $end
   $var wire 1 o cpu_clk $end
   $var wire 1 # cpu_resetn $end
   $var wire 1 u cpu_inst_we $end
   $var wire 32 $ cpu_inst_addr [31:0] $end
   $var wire 32 v cpu_inst_wdata [31:0] $end
   $var wire 32 % cpu_inst_rdata [31:0] $end
   $var wire 1 & cpu_data_we $end
   $var wire 32 ' cpu_data_addr [31:0] $end
   $var wire 32 ( cpu_data_wdata [31:0] $end
   $var wire 32 r cpu_data_rdata [31:0] $end
   $var wire 1 w data_sram_en $end
   $var wire 1 x data_sram_we $end
   $var wire 32 y data_sram_addr [31:0] $end
   $var wire 32 z data_sram_wdata [31:0] $end
   $var wire 32 { data_sram_rdata [31:0] $end
   $var wire 1 | conf_en $end
   $var wire 1 ) conf_we $end
   $var wire 32 } conf_addr [31:0] $end
   $var wire 32 ( conf_wdata [31:0] $end
   $var wire 32 ~ conf_rdata [31:0] $end
   $var wire 16 * conf_led [15:0] $end
   $scope module cpu $end
    $var wire 1 o clk $end
    $var wire 1 # resetn $end
    $var wire 1 u inst_sram_we $end
    $var wire 32 $ inst_sram_addr [31:0] $end
    $var wire 32 v inst_sram_wdata [31:0] $end
    $var wire 32 % inst_sram_rdata [31:0] $end
    $var wire 1 & data_sram_we $end
    $var wire 32 ' data_sram_addr [31:0] $end
    $var wire 32 ( data_sram_wdata [31:0] $end
    $var wire 32 r data_sram_rdata [31:0] $end
    $var wire 1 + reset $end
    $var wire 1 , valid $end
    $var wire 32 $ pc [31:0] $end
    $var wire 32 - nextpc [31:0] $end
    $var wire 32 % inst [31:0] $end
    $var wire 6 . op_31_26 [5:0] $end
    $var wire 4 / op_25_22 [3:0] $end
    $var wire 2 0 op_21_20 [1:0] $end
    $var wire 5 1 op_19_15 [4:0] $end
    $var wire 64 2 op_31_26_d [63:0] $end
    $var wire 16 4 op_25_22_d [15:0] $end
    $var wire 4 5 op_21_20_d [3:0] $end
    $var wire 32 6 op_19_15_d [31:0] $end
    $var wire 5 7 rd [4:0] $end
    $var wire 5 8 rj [4:0] $end
    $var wire 5 9 rk [4:0] $end
    $var wire 12 : i12 [11:0] $end
    $var wire 16 ; i16 [15:0] $end
    $var wire 1 < inst_add_w $end
    $var wire 1 = inst_addi_w $end
    $var wire 1 > inst_ld_w $end
    $var wire 1 & inst_st_w $end
    $var wire 1 ? inst_bne $end
    $var wire 1 @ src2_is_imm $end
    $var wire 1 > res_from_mem $end
    $var wire 1 A gr_we $end
    $var wire 1 & mem_we $end
    $var wire 1 B src_logic_is_rd $end
    $var wire 32 C rj_value [31:0] $end
    $var wire 32 ( rkd_value [31:0] $end
    $var wire 5 8 rf_raddr1 [4:0] $end
    $var wire 5 D rf_raddr2 [4:0] $end
    $var wire 32 s rf_wdata [31:0] $end
    $var wire 1 E br_taken $end
    $var wire 1 F rj_eq_rd $end
    $var wire 32 G br_offs [31:0] $end
    $var wire 32 H br_target [31:0] $end
    $var wire 32 I imm [31:0] $end
    $var wire 32 C alu_src1 [31:0] $end
    $var wire 32 J alu_src2 [31:0] $end
    $var wire 32 ' alu_result [31:0] $end
    $scope module u_dec0 $end
     $var wire 6 . in [5:0] $end
     $var wire 64 2 co [63:0] $end
    $upscope $end
    $scope module u_dec1 $end
     $var wire 4 / in [3:0] $end
     $var wire 16 4 co [15:0] $end
    $upscope $end
    $scope module u_dec2 $end
     $var wire 2 0 in [1:0] $end
     $var wire 4 5 co [3:0] $end
    $upscope $end
    $scope module u_dec3 $end
     $var wire 5 1 in [4:0] $end
     $var wire 32 6 co [31:0] $end
    $upscope $end
    $scope module u_regfile $end
     $var wire 1 o clk $end
     $var wire 5 8 raddr1 [4:0] $end
     $var wire 32 C rdata1 [31:0] $end
     $var wire 5 D raddr2 [4:0] $end
     $var wire 32 ( rdata2 [31:0] $end
     $var wire 1 A we $end
     $var wire 5 7 waddr [4:0] $end
     $var wire 32 s wdata [31:0] $end
     $var wire 32 K rf[0] [31:0] $end
     $var wire 32 L rf[1] [31:0] $end
     $var wire 32 M rf[2] [31:0] $end
     $var wire 32 N rf[3] [31:0] $end
     $var wire 32 O rf[4] [31:0] $end
     $var wire 32 P rf[5] [31:0] $end
     $var wire 32 Q rf[6] [31:0] $end
     $var wire 32 R rf[7] [31:0] $end
     $var wire 32 S rf[8] [31:0] $end
     $var wire 32 T rf[9] [31:0] $end
     $var wire 32 U rf[10] [31:0] $end
     $var wire 32 V rf[11] [31:0] $end
     $var wire 32 W rf[12] [31:0] $end
     $var wire 32 X rf[13] [31:0] $end
     $var wire 32 Y rf[14] [31:0] $end
     $var wire 32 Z rf[15] [31:0] $end
     $var wire 32 [ rf[16] [31:0] $end
     $var wire 32 \ rf[17] [31:0] $end
     $var wire 32 ] rf[18] [31:0] $end
     $var wire 32 ^ rf[19] [31:0] $end
     $var wire 32 _ rf[20] [31:0] $end
     $var wire 32 ` rf[21] [31:0] $end
     $var wire 32 a rf[22] [31:0] $end
     $var wire 32 b rf[23] [31:0] $end
     $var wire 32 c rf[24] [31:0] $end
     $var wire 32 d rf[25] [31:0] $end
     $var wire 32 e rf[26] [31:0] $end
     $var wire 32 f rf[27] [31:0] $end
     $var wire 32 g rf[28] [31:0] $end
     $var wire 32 h rf[29] [31:0] $end
     $var wire 32 i rf[30] [31:0] $end
     $var wire 32 j rf[31] [31:0] $end
    $upscope $end
   $upscope $end
   $scope module inst_ram $end
    $var wire 32 !! ADDR_WIDTH [31:0] $end
    $var wire 32 "! DATA_WIDTH [31:0] $end
    $var wire 32 #! DEPTH [31:0] $end
    $var wire 1 o clk $end
    $var wire 1 u we $end
    $var wire 15 k a [14:0] $end
    $var wire 32 v d [31:0] $end
    $var wire 32 % spo [31:0] $end
    $scope module async_ram1 $end
     $var wire 32 !! ADDR_WIDTH [31:0] $end
     $var wire 32 "! DATA_WIDTH [31:0] $end
     $var wire 32 #! DEPTH [31:0] $end
     $var wire 1 o clk $end
     $var wire 15 k address [14:0] $end
     $var wire 1 u we $end
     $var wire 32 % rdata [31:0] $end
     $var wire 32 v wdata [31:0] $end
     $var wire 32 l data_out [31:0] $end
    $upscope $end
   $upscope $end
   $scope module u_confreg $end
    $var wire 1 o clk $end
    $var wire 1 # resetn $end
    $var wire 1 ) conf_we $end
    $var wire 32 ( conf_wdata [31:0] $end
    $var wire 16 * led [15:0] $end
    $var wire 32 m led_data [31:0] $end
    $var wire 1 ) write_led $end
   $upscope $end
  $upscope $end
 $upscope $end
$enddefinitions $end


#0
0#
b00000000000000000000000000000000 $
b00000010100000000000000000001100 %
0&
b00000000000000000000000000000000 '
b00000000000000000000000000000000 (
0)
b0000000000000000 *
0+
0,
b00000000000000000000000000000100 -
b000000 .
b1010 /
b00 0
b00000 1
b0000000000000000000000000000000000000000000000000000000000000001 2
b0000010000000000 4
b0001 5
b00000000000000000000000000000001 6
b01100 7
b00000 8
b00000 9
b000000000000 :
b1010000000000000 ;
0<
1=
0>
0?
1@
1A
0B
b00000000000000000000000000000000 C
b00000 D
0E
1F
b11111111111111101000000000000000 G
b11111111111111101000000000000000 H
b00000000000000000000000000000000 I
b00000000000000000000000000000000 J
b00000000000000000000000000000000 K
b00000000000000000000000000000000 L
b00000000000000000000000000000000 M
b00000000000000000000000000000000 N
b00000000000000000000000000000000 O
b00000000000000000000000000000000 P
b00000000000000000000000000000000 Q
b00000000000000000000000000000000 R
b00000000000000000000000000000000 S
b00000000000000000000000000000000 T
b00000000000000000000000000000000 U
b00000000000000000000000000000000 V
b00000000000000000000000000000000 W
b00000000000000000000000000000000 X
b00000000000000000000000000000000 Y
b00000000000000000000000000000000 Z
b00000000000000000000000000000000 [
b00000000000000000000000000000000 \
b00000000000000000000000000000000 ]
b00000000000000000000000000000000 ^
b00000000000000000000000000000000 _
b00000000000000000000000000000000 `
b00000000000000000000000000000000 a
b00000000000000000000000000000000 b
b00000000000000000000000000000000 c
b00000000000000000000000000000000 d
b00000000000000000000000000000000 e
b00000000000000000000000000000000 f
b00000000000000000000000000000000 g
b00000000000000000000000000000000 h
b00000000000000000000000000000000 i
b00000000000000000000000000000000 j
b000000000000000 k
b00000010100000000000000000001100 l
b00000000000000000000000000000000 m
0n
0o
b1111111111111111 p
b00000000 q
b00000000000000000000000000000000 r
b00000000000000000000000000000000 s
0t
0u
b00000000000000000000000000000000 v
0w
0x
b00000000000000000000000000000000 y
b00000000000000000000000000000000 z
b00000000000000000000000000000000 {
0|
b00000000000000000000000000000000 }
b00000000000000000000000000000000 ~
b00000000000000000000000000001111 !!
b00000000000000000000000000100000 "!
b00000000000000001000000000000000 #!
#1
b00000000000000000000000000000100 $
b00000010100000000000010000001101 %
b00000000000000000000000000000001 '
1+
1,
b00000000000000000000000000001000 -
b01101 7
b00001 9
b000000000001 :
b1010000000000001 ;
b00001 D
b11111111111111101000000000000100 G
b11111111111111101000000000001000 H
b00000000000000000000000000000001 I
b00000000000000000000000000000001 J
b000000000000001 k
b00000010100000000000010000001101 l
1o
b00000100 q
b00000000000000000000000000000001 s
#2
0o
#3
b00011011111111111111111111111100 $
b00000000000000000000000000000000 %
b00000000000000000000000000000000 '
0,
b00011100000000000000000000000000 -
b0000 /
b0000000000000001 4
b00000 7
b00000 9
b000000000000 :
b0000000000000000 ;
0=
0@
0A
b00000 D
b00000000000000000000000000000000 G
b00011011111111111111111111111100 H
b00000000000000000000000000000000 I
b00000000000000000000000000000000 J
b00000000000000000000000000000001 X
b111111111111111 k
b00000000000000000000000000000000 l
1o
b00000000000000000000000000000000 s
#4
0o
#5
1o
#6
1n
0o
#7
1#
1o
#8
0o
#9
0+
1o
#10
0o
#11
b00011100000000000000000000000000 $
b00000010100000000000000000001100 %
1,
b00011100000000000000000000000100 -
b1010 /
b0000010000000000 4
b01100 7
b1010000000000000 ;
1=
1@
1A
b11111111111111101000000000000000 G
b00011011111111101000000000000000 H
b000000000000000 k
b00000010100000000000000000001100 l
1o
#12
0o
#13
b00011100000000000000000000000100 $
b00000010100000000000010000001101 %
b00000000000000000000000000000001 '
b00011100000000000000000000001000 -
b01101 7
b00001 9
b000000000001 :
b1010000000000001 ;
b00001 D
b11111111111111101000000000000100 G
b00011011111111101000000000001000 H
b00000000000000000000000000000001 I
b00000000000000000000000000000001 J
b000000000000001 k
b00000010100000000000010000001101 l
1o
b00000000000000000000000000000001 s
#14
0o
#15
b00011100000000000000000000001000 $
b00000010100000000000000000010111 %
b00000000000000000000000000000000 '
b00011100000000000000000000001100 -
b10111 7
b00000 9
b000000000000 :
b1010000000000000 ;
b00000 D
b11111111111111101000000000000000 G
b00000000000000000000000000000000 I
b00000000000000000000000000000000 J
b000000000000010 k
b00000010100000000000000000010111 l
1o
b00000000000000000000000000000000 s
#16
0o
#17
b00011100000000000000000000001100 $
b00000010100000000000010000011000 %
b00000000000000000000000000000001 '
b00011100000000000000000000010000 -
b11000 7
b00001 9
b000000000001 :
b1010000000000001 ;
b00001 D
b11111111111111101000000000000100 G
b00011011111111101000000000010000 H
b00000000000000000000000000000001 I
b00000000000000000000000000000001 J
b000000000000011 k
b00000010100000000000010000011000 l
1o
b00000000000000000000000000000001 s
#18
0o
#19
b00011100000000000000000000010000 $
b00101000100100000000000000000100 %
b00000000000000000000010000000000 '
b00011100000000000000000000010100 -
b001010 .
b0010 /
b01 0
b0000000000000000000000000000000000000000000000000000010000000000 2
b0000000000000100 4
b0010 5
b00100 7
b00000 9
b010000000000 :
b0010010000000000 ;
0=
1>
b00000 D
b00000000000000001001000000000000 G
b00011100000000001001000000010000 H
b00000000000000000000010000000000 I
b00000000000000000000010000000000 J
b00000000000000000000000000000001 c
b000000000000100 k
b00101000100100000000000000000100 l
1o
b00000000000000000000000011111011 r
b00000000000000000000000011111011 s
#20
0o
#21
b00011100000000000000000000010100 $
b00000000000100000011010110001110 %
b00000000000000000000000000000001 '
b00000000000000000000000000000001 (
b00011100000000000000000000011000 -
b000000 .
b0000 /
b0000000000000000000000000000000000000000000000000000000000000001 2
b0000000000000001 4
b01110 7
b01100 8
b01101 9
b010000001101 :
b0000010000001101 ;
1<
0>
0@
b01101 D
0F
b00000000000000000001000000110100 G
b00011100000000000001000001001000 H
b00000000000000000000010000001101 I
b00000000000000000000000000000001 J
b00000000000000000000000011111011 O
b000000000000101 k
b00000000000100000011010110001110 l
1o
b00000000000000000000000000000000 r
b00000000000000000000000000000001 s
#22
0o
#23
b00011100000000000000000000011000 $
b00000010100000000000000110101100 %
b00000000000000000000000000000000 (
b00011100000000000000000000011100 -
b1010 /
b00 0
b0000010000000000 4
b0001 5
b01100 7
b01101 8
b00000 9
b000000000000 :
b1010000000000000 ;
0<
1=
1@
b00000000000000000000000000000001 C
b00000 D
b11111111111111101000000000000000 G
b00011011111111101000000000011000 H
b00000000000000000000000000000000 I
b00000000000000000000000000000000 J
b00000000000000000000000000000001 Y
b000000000000110 k
b00000010100000000000000110101100 l
1o
#24
0o
#25
b00011100000000000000000000011100 $
b00000010100000000000000111001101 %
b00011100000000000000000000100000 -
b01101 7
b01110 8
b00011011111111101000000000011100 H
b00000000000000000000000000000001 W
b000000000000111 k
b00000010100000000000000111001101 l
1o
#26
0o
#27
b00011100000000000000000000100000 $
b00000000000100000110001011110111 %
b00000000000000000000000000000001 (
b00011100000000000000000000100100 -
b0000 /
b01 0
b0000000000000001 4
b0010 5
b10111 7
b10111 8
b11000 9
b010000011000 :
b0000010000011000 ;
1<
0=
0@
b00000000000000000000000000000000 C
b11000 D
b00000000000000000001000001100000 G
b00011100000000000001000010000000 H
b00000000000000000000010000011000 I
b00000000000000000000000000000001 J
b000000000001000 k
b00000000000100000110001011110111 l
1o
#28
0o
#29
b00011100000000000000000000100100 $
b01011111111111111111001011100100 %
b00000000000000000000000011111100 '
b00000000000000000000000011111011 (
b00011100000000000000000000010100 -
b010111 .
b1111 /
b11 0
b11111 1
b0000000000000000000000000000000000000000100000000000000000000000 2
b1000000000000000 4
b1000 5
b10000000000000000000000000000000 6
b00100 7
b11100 9
b111111111100 :
b1111111111111100 ;
0<
1?
0A
1B
b00000000000000000000000000000001 C
b00100 D
1E
b11111111111111111111111111110000 G
b00011100000000000000000000010100 H
b11111111111111111111111111111100 I
b00000000000000000000000011111011 J
b00000000000000000000000000000001 b
b000000000001001 k
b01011111111111111111001011100100 l
1o
b00000000000000000000000011111100 s
#30
0o
#31
b00011100000000000000000000010100 $
b00000000000100000011010110001110 %
b00000000000000000000000000000010 '
b00000000000000000000000000000001 (
b00011100000000000000000000011000 -
b000000 .
b0000 /
b01 0
b00000 1
b0000000000000000000000000000000000000000000000000000000000000001 2
b0000000000000001 4
b0010 5
b00000000000000000000000000000001 6
b01110 7
b01100 8
b01101 9
b010000001101 :
b0000010000001101 ;
1<
0?
1A
0B
b01101 D
0E
1F
b00000000000000000001000000110100 G
b00011100000000000001000001001000 H
b00000000000000000000010000001101 I
b00000000000000000000000000000001 J
b000000000000101 k
b00000000000100000011010110001110 l
1o
b00000000000000000000000000000010 s
#32
0o
#33
b00011100000000000000000000011000 $
b00000010100000000000000110101100 %
b00000000000000000000000000000001 '
b00000000000000000000000000000000 (
b00011100000000000000000000011100 -
b1010 /
b00 0
b0000010000000000 4
b0001 5
b01100 7
b01101 8
b00000 9
b000000000000 :
b1010000000000000 ;
0<
1=
1@
b00000 D
0F
b11111111111111101000000000000000 G
b00011011111111101000000000011000 H
b00000000000000000000000000000000 I
b00000000000000000000000000000000 J
b00000000000000000000000000000010 Y
b000000000000110 k
b00000010100000000000000110101100 l
1o
b00000000000000000000000000000001 s
#34
0o
#35
b00011100000000000000000000011100 $
b00000010100000000000000111001101 %
b00000000000000000000000000000010 '
b00011100000000000000000000100000 -
b01101 7
b01110 8
b00000000000000000000000000000010 C
b00011011111111101000000000011100 H
b000000000000111 k
b00000010100000000000000111001101 l
1o
b00000000000000000000000000000010 s
#36
0o
#37
b00011100000000000000000000100000 $
b00000000000100000110001011110111 %
b00000000000000000000000000000001 (
b00011100000000000000000000100100 -
b0000 /
b01 0
b0000000000000001 4
b0010 5
b10111 7
b10111 8
b11000 9
b010000011000 :
b0000010000011000 ;
1<
0=
0@
b00000000000000000000000000000001 C
b11000 D
1F
b00000000000000000001000001100000 G
b00011100000000000001000010000000 H
b00000000000000000000010000011000 I
b00000000000000000000000000000001 J
b00000000000000000000000000000010 X
b000000000001000 k
b00000000000100000110001011110111 l
1o
#38
0o
#39
b00011100000000000000000000100100 $
b01011111111111111111001011100100 %
b00000000000000000000000011111101 '
b00000000000000000000000011111011 (
b00011100000000000000000000010100 -
b010111 .
b1111 /
b11 0
b11111 1
b0000000000000000000000000000000000000000100000000000000000000000 2
b1000000000000000 4
b1000 5
b10000000000000000000000000000000 6
b00100 7
b11100 9
b111111111100 :
b1111111111111100 ;
0<
1?
0A
1B
b00000000000000000000000000000010 C
b00100 D
1E
0F
b11111111111111111111111111110000 G
b00011100000000000000000000010100 H
b11111111111111111111111111111100 I
b00000000000000000000000011111011 J
b00000000000000000000000000000010 b
b000000000001001 k
b01011111111111111111001011100100 l
1o
b00000000000000000000000011111101 s
#40
0o
#41
b00011100000000000000000000010100 $
b00000000000100000011010110001110 %
b00000000000000000000000000000011 '
b00000000000000000000000000000010 (
b00011100000000000000000000011000 -
b000000 .
b0000 /
b01 0
b00000 1
b0000000000000000000000000000000000000000000000000000000000000001 2
b0000000000000001 4
b0010 5
b00000000000000000000000000000001 6
b01110 7
b01100 8
b01101 9
b010000001101 :
b0000010000001101 ;
1<
0?
1A
0B
b00000000000000000000000000000001 C
b01101 D
0E
b00000000000000000001000000110100 G
b00011100000000000001000001001000 H
b00000000000000000000010000001101 I
b00000000000000000000000000000010 J
b000000000000101 k
b00000000000100000011010110001110 l
1o
b00000000000000000000000000000011 s
#42
0o
#43
b00011100000000000000000000011000 $
b00000010100000000000000110101100 %
b00000000000000000000000000000010 '
b00000000000000000000000000000000 (
b00011100000000000000000000011100 -
b1010 /
b00 0
b0000010000000000 4
b0001 5
b01100 7
b01101 8
b00000 9
b000000000000 :
b1010000000000000 ;
0<
1=
1@
b00000000000000000000000000000010 C
b00000 D
b11111111111111101000000000000000 G
b00011011111111101000000000011000 H
b00000000000000000000000000000000 I
b00000000000000000000000000000000 J
b00000000000000000000000000000011 Y
b000000000000110 k
b00000010100000000000000110101100 l
1o
b00000000000000000000000000000010 s
#44
0o
#45
b00011100000000000000000000011100 $
b00000010100000000000000111001101 %
b00000000000000000000000000000011 '
b00011100000000000000000000100000 -
b01101 7
b01110 8
b00000000000000000000000000000011 C
b00011011111111101000000000011100 H
b00000000000000000000000000000010 W
b000000000000111 k
b00000010100000000000000111001101 l
1o
b00000000000000000000000000000011 s
#46
0o
#47
b00011100000000000000000000100000 $
b00000000000100000110001011110111 %
b00000000000000000000000000000001 (
b00011100000000000000000000100100 -
b0000 /
b01 0
b0000000000000001 4
b0010 5
b10111 7
b10111 8
b11000 9
b010000011000 :
b0000010000011000 ;
1<
0=
0@
b00000000000000000000000000000010 C
b11000 D
b00000000000000000001000001100000 G
b00011100000000000001000010000000 H
b00000000000000000000010000011000 I
b00000000000000000000000000000001 J
b00000000000000000000000000000011 X
b000000000001000 k
b00000000000100000110001011110111 l
1o
#48
0o
#49
b00011100000000000000000000100100 $
b01011111111111111111001011100100 %
b00000000000000000000000011111110 '
b00000000000000000000000011111011 (
b00011100000000000000000000010100 -
b010111 .
b1111 /
b11 0
b11111 1
b0000000000000000000000000000000000000000100000000000000000000000 2
b1000000000000000 4
b1000 5
b10000000000000000000000000000000 6
b00100 7
b11100 9
b111111111100 :
b1111111111111100 ;
0<
1?
0A
1B
b00000000000000000000000000000011 C
b00100 D
1E
b11111111111111111111111111110000 G
b00011100000000000000000000010100 H
b11111111111111111111111111111100 I
b00000000000000000000000011111011 J
b00000000000000000000000000000011 b
b000000000001001 k
b01011111111111111111001011100100 l
1o
b00000000000000000000000011111110 s
#50
0o
#51
b00011100000000000000000000010100 $
b00000000000100000011010110001110 %
b00000000000000000000000000000101 '
b00000000000000000000000000000011 (
b00011100000000000000000000011000 -
b000000 .
b0000 /
b01 0
b00000 1
b0000000000000000000000000000000000000000000000000000000000000001 2
b0000000000000001 4
b0010 5
b00000000000000000000000000000001 6
b01110 7
b01100 8
b01101 9
b010000001101 :
b0000010000001101 ;
1<
0?
1A
0B
b00000000000000000000000000000010 C
b01101 D
0E
b00000000000000000001000000110100 G
b00011100000000000001000001001000 H
b00000000000000000000010000001101 I
b00000000000000000000000000000011 J
b000000000000101 k
b00000000000100000011010110001110 l
1o
b00000000000000000000000000000101 s
#52
0o
#53
b00011100000000000000000000011000 $
b00000010100000000000000110101100 %
b00000000000000000000000000000011 '
b00000000000000000000000000000000 (
b00011100000000000000000000011100 -
b1010 /
b00 0
b0000010000000000 4
b0001 5
b01100 7
b01101 8
b00000 9
b000000000000 :
b1010000000000000 ;
0<
1=
1@
b00000000000000000000000000000011 C
b00000 D
b11111111111111101000000000000000 G
b00011011111111101000000000011000 H
b00000000000000000000000000000000 I
b00000000000000000000000000000000 J
b00000000000000000000000000000101 Y
b000000000000110 k
b00000010100000000000000110101100 l
1o
b00000000000000000000000000000011 s
#54
0o
#55
b00011100000000000000000000011100 $
b00000010100000000000000111001101 %
b00000000000000000000000000000101 '
b00011100000000000000000000100000 -
b01101 7
b01110 8
b00000000000000000000000000000101 C
b00011011111111101000000000011100 H
b00000000000000000000000000000011 W
b000000000000111 k
b00000010100000000000000111001101 l
1o
b00000000000000000000000000000101 s
#56
0o
#57
b00011100000000000000000000100000 $
b00000000000100000110001011110111 %
b00000000000000000000000000000100 '
b00000000000000000000000000000001 (
b00011100000000000000000000100100 -
b0000 /
b01 0
b0000000000000001 4
b0010 5
b10111 7
b10111 8
b11000 9
b010000011000 :
b0000010000011000 ;
1<
0=
0@
b00000000000000000000000000000011 C
b11000 D
b00000000000000000001000001100000 G
b00011100000000000001000010000000 H
b00000000000000000000010000011000 I
b00000000000000000000000000000001 J
b00000000000000000000000000000101 X
b000000000001000 k
b00000000000100000110001011110111 l
1o
b00000000000000000000000000000100 s
#58
0o
#59
b00011100000000000000000000100100 $
b01011111111111111111001011100100 %
b00000000000000000000000011111111 '
b00000000000000000000000011111011 (
b00011100000000000000000000010100 -
b010111 .
b1111 /
b11 0
b11111 1
b0000000000000000000000000000000000000000100000000000000000000000 2
b1000000000000000 4
b1000 5
b10000000000000000000000000000000 6
b00100 7
b11100 9
b111111111100 :
b1111111111111100 ;
0<
1?
0A
1B
b00000000000000000000000000000100 C
b00100 D
1E
b11111111111111111111111111110000 G
b00011100000000000000000000010100 H
b11111111111111111111111111111100 I
b00000000000000000000000011111011 J
b00000000000000000000000000000100 b
b000000000001001 k
b01011111111111111111001011100100 l
1o
b00000000000000000000000011111111 s
#60
0o
#61
b00011100000000000000000000010100 $
b00000000000100000011010110001110 %
b00000000000000000000000000001000 '
b00000000000000000000000000000101 (
b00011100000000000000000000011000 -
b000000 .
b0000 /
b01 0
b00000 1
b0000000000000000000000000000000000000000000000000000000000000001 2
b0000000000000001 4
b0010 5
b00000000000000000000000000000001 6
b01110 7
b01100 8
b01101 9
b010000001101 :
b0000010000001101 ;
1<
0?
1A
0B
b00000000000000000000000000000011 C
b01101 D
0E
b00000000000000000001000000110100 G
b00011100000000000001000001001000 H
b00000000000000000000010000001101 I
b00000000000000000000000000000101 J
b000000000000101 k
b00000000000100000011010110001110 l
1o
b00000000000000000000000000001000 s
#62
0o
#63
b00011100000000000000000000011000 $
b00000010100000000000000110101100 %
b00000000000000000000000000000101 '
b00000000000000000000000000000000 (
b00011100000000000000000000011100 -
b1010 /
b00 0
b0000010000000000 4
b0001 5
b01100 7
b01101 8
b00000 9
b000000000000 :
b1010000000000000 ;
0<
1=
1@
b00000000000000000000000000000101 C
b00000 D
b11111111111111101000000000000000 G
b00011011111111101000000000011000 H
b00000000000000000000000000000000 I
b00000000000000000000000000000000 J
b00000000000000000000000000001000 Y
b000000000000110 k
b00000010100000000000000110101100 l
1o
b00000000000000000000000000000101 s
#64
0o
#65
b00011100000000000000000000011100 $
b00000010100000000000000111001101 %
b00000000000000000000000000001000 '
b00011100000000000000000000100000 -
b01101 7
b01110 8
b00000000000000000000000000001000 C
b00011011111111101000000000011100 H
b00000000000000000000000000000101 W
b000000000000111 k
b00000010100000000000000111001101 l
1o
b00000000000000000000000000001000 s
#66
0o
#67
b00011100000000000000000000100000 $
b00000000000100000110001011110111 %
b00000000000000000000000000000101 '
b00000000000000000000000000000001 (
b00011100000000000000000000100100 -
b0000 /
b01 0
b0000000000000001 4
b0010 5
b10111 7
b10111 8
b11000 9
b010000011000 :
b0000010000011000 ;
1<
0=
0@
b00000000000000000000000000000100 C
b11000 D
b00000000000000000001000001100000 G
b00011100000000000001000010000000 H
b00000000000000000000010000011000 I
b00000000000000000000000000000001 J
b00000000000000000000000000001000 X
b000000000001000 k
b00000000000100000110001011110111 l
1o
b00000000000000000000000000000101 s
#68
0o
#69
b00011100000000000000000000100100 $
b01011111111111111111001011100100 %
b00000000000000000000000100000000 '
b00000000000000000000000011111011 (
b00011100000000000000000000010100 -
b010111 .
b1111 /
b11 0
b11111 1
b0000000000000000000000000000000000000000100000000000000000000000 2
b1000000000000000 4
b1000 5
b10000000000000000000000000000000 6
b00100 7
b11100 9
b111111111100 :
b1111111111111100 ;
0<
1?
0A
1B
b00000000000000000000000000000101 C
b00100 D
1E
b11111111111111111111111111110000 G
b00011100000000000000000000010100 H
b11111111111111111111111111111100 I
b00000000000000000000000011111011 J
b00000000000000000000000000000101 b
b000000000001001 k
b01011111111111111111001011100100 l
1o
b00000000000000000000000100000000 s
#70
0o
#71
b00011100000000000000000000010100 $
b00000000000100000011010110001110 %
b00000000000000000000000000001101 '
b00000000000000000000000000001000 (
b00011100000000000000000000011000 -
b000000 .
b0000 /
b01 0
b00000 1
b0000000000000000000000000000000000000000000000000000000000000001 2
b0000000000000001 4
b0010 5
b00000000000000000000000000000001 6
b01110 7
b01100 8
b01101 9
b010000001101 :
b0000010000001101 ;
1<
0?
1A
0B
b01101 D
0E
b00000000000000000001000000110100 G
b00011100000000000001000001001000 H
b00000000000000000000010000001101 I
b00000000000000000000000000001000 J
b000000000000101 k
b00000000000100000011010110001110 l
1o
b00000000000000000000000000001101 s
#72
0o
#73
b00011100000000000000000000011000 $
b00000010100000000000000110101100 %
b00000000000000000000000000001000 '
b00000000000000000000000000000000 (
b00011100000000000000000000011100 -
b1010 /
b00 0
b0000010000000000 4
b0001 5
b01100 7
b01101 8
b00000 9
b000000000000 :
b1010000000000000 ;
0<
1=
1@
b00000000000000000000000000001000 C
b00000 D
b11111111111111101000000000000000 G
b00011011111111101000000000011000 H
b00000000000000000000000000000000 I
b00000000000000000000000000000000 J
b00000000000000000000000000001101 Y
b000000000000110 k
b00000010100000000000000110101100 l
1o
b00000000000000000000000000001000 s
#74
0o
#75
b00011100000000000000000000011100 $
b00000010100000000000000111001101 %
b00000000000000000000000000001101 '
b00011100000000000000000000100000 -
b01101 7
b01110 8
b00000000000000000000000000001101 C
b00011011111111101000000000011100 H
b00000000000000000000000000001000 W
b000000000000111 k
b00000010100000000000000111001101 l
1o
b00000000000000000000000000001101 s
#76
0o
#77
b00011100000000000000000000100000 $
b00000000000100000110001011110111 %
b00000000000000000000000000000110 '
b00000000000000000000000000000001 (
b00011100000000000000000000100100 -
b0000 /
b01 0
b0000000000000001 4
b0010 5
b10111 7
b10111 8
b11000 9
b010000011000 :
b0000010000011000 ;
1<
0=
0@
b00000000000000000000000000000101 C
b11000 D
b00000000000000000001000001100000 G
b00011100000000000001000010000000 H
b00000000000000000000010000011000 I
b00000000000000000000000000000001 J
b00000000000000000000000000001101 X
b000000000001000 k
b00000000000100000110001011110111 l
1o
b00000000000000000000000000000110 s
#78
0o
#79
b00011100000000000000000000100100 $
b01011111111111111111001011100100 %
b00000000000000000000000100000001 '
b00000000000000000000000011111011 (
b00011100000000000000000000010100 -
b010111 .
b1111 /
b11 0
b11111 1
b0000000000000000000000000000000000000000100000000000000000000000 2
b1000000000000000 4
b1000 5
b10000000000000000000000000000000 6
b00100 7
b11100 9
b111111111100 :
b1111111111111100 ;
0<
1?
0A
1B
b00000000000000000000000000000110 C
b00100 D
1E
b11111111111111111111111111110000 G
b00011100000000000000000000010100 H
b11111111111111111111111111111100 I
b00000000000000000000000011111011 J
b00000000000000000000000000000110 b
b000000000001001 k
b01011111111111111111001011100100 l
1o
b00000000000000000000000100000001 s
#80
0o
#81
b00011100000000000000000000010100 $
b00000000000100000011010110001110 %
b00000000000000000000000000010101 '
b00000000000000000000000000001101 (
b00011100000000000000000000011000 -
b000000 .
b0000 /
b01 0
b00000 1
b0000000000000000000000000000000000000000000000000000000000000001 2
b0000000000000001 4
b0010 5
b00000000000000000000000000000001 6
b01110 7
b01100 8
b01101 9
b010000001101 :
b0000010000001101 ;
1<
0?
1A
0B
b00000000000000000000000000001000 C
b01101 D
0E
b00000000000000000001000000110100 G
b00011100000000000001000001001000 H
b00000000000000000000010000001101 I
b00000000000000000000000000001101 J
b000000000000101 k
b00000000000100000011010110001110 l
1o
b00000000000000000000000000010101 s
#82
0o
